…
  #Calculate 14 day moving average of samplesize across different surveys
  mutate(samplesizem = movavg(samplesize, 14, "s"), 
         
        #Calculate moving average % per party
         unionm = (movavg(union_votes, 14, "s")/samplesizem*100), 
         spdm = (movavg(spd_votes, 14, "s")/samplesizem*100),
         af_dm = (movavg(af_d_votes, 14, "s")/samplesizem*100),
         fdpm = (movavg(fdp_votes, 14, "s")/samplesizem*100),
         linkem = (movavg(linke_votes, 14, "s")/samplesizem*100),
         grunem = (movavg(grune_votes, 14, "s")/samplesizem*100),
         )

german_polls

## # A tibble: 225 × 22
##    polling_firm        end_date   samplesize union   spd  af_d   fdp linke grune
##    <chr>               <date>          <dbl> <dbl> <dbl> <dbl> <dbl> <dbl> <dbl>
##  1 Forschungsgruppe W… 2021-09-10       1281  22      25    11  11     6    17  
##  2 Kantar              2021-09-10       1901  21      25    12  12     6    17  
##  3 Wahlkreisprognose   2021-09-10       1208  19      28    11  12     6    14  
##  4 Civey               2021-09-10      10082  23      25    11  11     6    17  
##  5 YouGov              2021-09-10       1700  21      26    12  10     6    15  
##  6 Allensbach          2021-09-10       1258  25      27    11   9.5   6    15.5
##  7 INSA                2021-09-10       2052  20.5    26    11  12.5   6.5  15.5
##  8 GMS                 2021-09-10       1004  23      25    11  12     6    17  
##  9 Forsa               2021-09-10       2505  19      25    11  13     6    17  
## 10 INSA                2021-09-10       1427  20      25    12  13     7    16  
## # … with 215 more rows, and 13 more variables: union_votes <dbl>,
## #   spd_votes <dbl>, af_d_votes <dbl>, fdp_votes <dbl>, linke_votes <dbl>,
## #   grune_votes <dbl>, samplesizem <dbl>, unionm <dbl>, spdm <dbl>,
## #   af_dm <dbl>, fdpm <dbl>, linkem <dbl>, grunem <dbl>
…
